The repertoire of copy number alteration signatures in human cancer
…
count_summary <- count_df2 %>%
  group_by(cancer_type, sig_type, sample, method) %>%
  summarise(
    rmse = sqrt(sum((count - n_of_seg)^2) / length(count)),
    change_frac = 100 * (rmse / n_of_seg),
    .groups = "drop"
  )

count_summary

# A tibble: 16,752 x 6
   cancer_type sig_type sample  method       rmse change_frac
   <chr>       <chr>    <chr>   <chr>       <dbl>       <dbl>
 1 Breast      10_Sigs  SP10084 W      15.0         2.72     
 2 Breast      10_Sigs  SP10084 X       0.000382    0.0000695
 3 Breast      10_Sigs  SP10150 W       5.89        5.36     
 4 Breast      10_Sigs  SP10150 X       0.000142    0.000129 
 5 Breast      10_Sigs  SP10470 W       5.46        0.540    
 6 Breast      10_Sigs  SP10470 X       3.00        0.297    
 7 Breast      10_Sigs  SP10563 W      25.7         5.64     
 8 Breast      10_Sigs  SP10563 X       4.00        0.879    
 9 Breast      10_Sigs  SP10635 W       1.12        2.29     
10 Breast      10_Sigs  SP10635 X       0.0000271   0.0000554
# … with 16,742 more rows
…
